…
    #omit rows that do not include dumpster-specific data
    select(dumpster:homes_powered) %>%
    drop_na(dumpster) %>% 
    
    #round the number of sports balls to the nearest integer and converts the result to an integer variable
    mutate(sports_balls = round(sports_balls,digits = 0)) %>% 
    mutate(sports_balls = as.integer(sports_balls)) 

wheel_data
## # A tibble: 344 x 14
##    dumpster month  year date                weight_tons volume_cubic_ya…
##       <dbl> <chr> <dbl> <dttm>                    <dbl>            <dbl>
##  1        1 May    2014 2014-05-16 00:00:00        4.31               18
##  2        2 May    2014 2014-05-16 00:00:00        2.74               13
##  3        3 May    2014 2014-05-16 00:00:00        3.45               15
##  4        4 May    2014 2014-05-17 00:00:00        3.1                15
##  5        5 May    2014 2014-05-17 00:00:00        4.06               18
##  6        6 May    2014 2014-05-20 00:00:00        2.71               13
##  7        7 May    2014 2014-05-21 00:00:00        1.91                8
##  8        8 May    2014 2014-05-28 00:00:00        3.7                16
##  9        9 June   2014 2014-06-05 00:00:00        2.52               14
## 10       10 June   2014 2014-06-11 00:00:00        3.76               18
## # … with 334 more rows, and 8 more variables: plastic_bottles <dbl>,
## #   polystyrene <dbl>, cigarette_butts <dbl>, glass_bottles <dbl>,
## #   grocery_bags <dbl>, chip_bags <dbl>, sports_balls <int>,
## #   homes_powered <dbl>
```
…
``` r
#combine the above two datasets
combine_data = bind_rows(precipitation2017_data, precipitation2018_data) %>% 
  janitor::clean_names() %>%
  
  #convert month to a character variable
  mutate(month = month.name[month])  

combine_data
```

    ## # A tibble: 24 x 3
    ##    month     total  year
    ##    <chr>     <dbl> <dbl>
    ##  1 January    2.34  2017
    ##  2 February   1.46  2017
    ##  3 March      3.57  2017
    ##  4 April      3.99  2017
    ##  5 May        5.64  2017
    ##  6 June       1.4   2017
    ##  7 July       7.09  2017
    ##  8 August     4.44  2017
    ##  9 September  1.95  2017
    ## 10 October    0     2017
    ## # … with 14 more rows
…
``` r
pol_data
```

    ## # A tibble: 822 x 9
    ##    year  month    gov_gop sen_gop rep_gop gov_dem sen_dem rep_dem president
    ##    <chr> <chr>      <dbl>   <dbl>   <dbl>   <dbl>   <dbl>   <dbl> <chr>    
    ##  1 1947  January       23      51     253      23      45     198 dem      
    ##  2 1947  February      23      51     253      23      45     198 dem      
    ##  3 1947  March         23      51     253      23      45     198 dem      
    ##  4 1947  April         23      51     253      23      45     198 dem      
    ##  5 1947  May           23      51     253      23      45     198 dem      
    ##  6 1947  June          23      51     253      23      45     198 dem      
    ##  7 1947  July          23      51     253      23      45     198 dem      
    ##  8 1947  August        23      51     253      23      45     198 dem      
    ##  9 1947  Septemb…      23      51     253      23      45     198 dem      
    ## 10 1947  October       23      51     253      23      45     198 dem      
    ## # … with 812 more rows
…
    ## Parsed with column specification:
    ## cols(
    ##   date = col_character(),
    ##   close = col_double()
    ## )

``` r
snp_data
```

    ## # A tibble: 787 x 3
    ##    year  month    close
    ##    <chr> <chr>    <dbl>
    ##  1 1950  January   17.0
    ##  2 1950  October   19.5
    ##  3 1950  November  19.5
    ##  4 1950  December  20.4
    ##  5 1950  February  17.2
    ##  6 1950  March     17.3
    ##  7 1950  April     18.0
    ##  8 1950  May       18.8
    ##  9 1950  June      17.7
    ## 10 1950  July      17.8
    ## # … with 777 more rows
…
``` r
unemployment_data
```

    ## # A tibble: 816 x 3
    ##    year  month     unemployment
    ##    <chr> <chr>            <dbl>
    ##  1 1948  January            3.4
    ##  2 1948  February           3.8
    ##  3 1948  March              4  
    ##  4 1948  April              3.9
    ##  5 1948  May                3.5
    ##  6 1948  June               3.6
    ##  7 1948  July               3.6
    ##  8 1948  August             3.9
    ##  9 1948  September          3.8
    ## 10 1948  October            3.7
    ## # … with 806 more rows

``` r
#Join the datasets by merging snp into pols, and merging unemployment into the result.
pol_snp = left_join(pol_data,snp_data, by=c("year","month"))
 
final_data = left_join(pol_snp,unemployment_data, by = c("year","month"))

final_data
```

    ## # A tibble: 822 x 11
    ##    year  month gov_gop sen_gop rep_gop gov_dem sen_dem rep_dem president
    ##    <chr> <chr>   <dbl>   <dbl>   <dbl>   <dbl>   <dbl>   <dbl> <chr>    
    ##  1 1947  Janu…      23      51     253      23      45     198 dem      
    ##  2 1947  Febr…      23      51     253      23      45     198 dem      
    ##  3 1947  March      23      51     253      23      45     198 dem      
    ##  4 1947  April      23      51     253      23      45     198 dem      
    ##  5 1947  May        23      51     253      23      45     198 dem      
    ##  6 1947  June       23      51     253      23      45     198 dem      
    ##  7 1947  July       23      51     253      23      45     198 dem      
    ##  8 1947  Augu…      23      51     253      23      45     198 dem      
    ##  9 1947  Sept…      23      51     253      23      45     198 dem      
    ## 10 1947  Octo…      23      51     253      23      45     198 dem      
    ## # … with 812 more rows, and 2 more variables: close <dbl>,
    ## #   unemployment <dbl>
…
